"Country","Region/State","City","Zip/Postal Code","Zip to","Weight From","Weight From","Price From","Price To","Item From","Item To","Shipping Price","Algorithm","Delivery Type","Sort Order"
"*","*","*","*","*","*","*","*","*","*","*",4.75,"I=1","Ground",
"*","*","*","*","*","*","*","*","*","*","*",14.75,"I=3","2nd Day",
"*","*","*","*","*","*","*","*","*","*","*",29.75,"I=5","Next Day",
