"Country","Region/State","City","Zip/Postal Code","Zip to","Weight from","Weight to","Price From","Price To","Item From","Item To","Shipping Price","Algorithm","Delivery Type","Sort Order"
"GBR","*","*","*","*","*","*","*","*","*","*",8.95,"*","Standard",
"GBR","*","*","*","*","*","*","*","*","*","*",9.95,"instock=true","Next Day",
